SRC/Xoroshiro128+/xoroshiro128plus_tb.vcd
$date
	Sun Dec  7 04:07:49 2025
$end
$version
	Icarus Verilog
$end
$timescale
	1ps
$end
$scope module tb_xoroshiro128plus $end
$var wire 64 ! rand_out [63:0] $end
$var reg 1 " clk $end
$var reg 1 # en $end
$var reg 1 $ rst $end
$var reg 128 % seed [127:0] $end
$scope module uut $end
$var wire 1 " clk $end
$var wire 128 & data_in [127:0] $end
$var wire 1 # en $end
$var wire 1 $ rst $end
$var reg 64 ' out [63:0] $end
$var reg 64 ( s0 [63:0] $end
$var reg 64 ) s1 [63:0] $end
$scope function rotl $end
$var reg 6 * k [5:0] $end
$var reg 64 + x [63:0] $end
$upscope $end
$upscope $end
$upscope $end
$enddefinitions $end
$comment Show the parameter values. $end
$dumpall
$end
#0
$dumpvars
bx +
bx *
b100100011010001010110011110001001101010111100110111101111 )
b1111111011011100101110101001100001110110010101000011001000010000 (
b0 '
b1001000110100010101100111100010011010101111001101111011111111111011011100101110101001100001110110010101000011001000010000 &
b1001000110100010101100111100010011010101111001101111011111111111011011100101110101001100001110110010101000011001000010000 %
1$
0#
0"
b0 !
$end
#5000
1"
#10000
0"
1#
0$
#15000
b1101100000000101110010010101000000110110111010110010011111110110 (
b1001101010111100110111101111000000010010001101000101011001111000 )
b1111111111111111111111111111111111111111111111111111111111111111 !
b1111111111111111111111111111111111111111111111111111111111111111 '
b100100011010001010110011110001001101010111100110111101111 +
b100100 *
1"
#20000
0"
#25000
b101011001101100110110001001100110101111101100010010001111101011 (
b10001101000101011001111000100110101011110011011110111100000001 )
b111001011000010101010000100000001001001000111110111111001101110 !
b111001011000010101010000100000001001001000111110111111001101110 '
b1001101010111100110111101111000000010010001101000101011001111000 +
b100100 *
1"
#30000
0"
#35000
b1000111100001100001110110001011010011100110110100111011110010000 (
b1011110011011110111100000001001000110100010101100111100010011010 )
b111100110110010010000000010001101011011011111110001001011101100 !
b111100110110010010000000010001101011011011111110001001011101100 '
b10001101000101011001111000100110101011110011011110111100000001 +
b100100 *
1"
#40000
0"
#45000
b1100100010011101111110110001101000100001001111101001010110100001 (
b100010101100111100010011010101111001101111011110000000100100011 )
b100101111101011001010110010100011010001001100001111000000101010 !
b100101111101011001010110010100011010001001100001111000000101010 '
b1011110011011110111100000001001000110100010101100111100010011010 +
b100100 *
1"
#50000
0"
#55000
b111011111101001001101000010110110000000101101110101111001101001 (
b1101111011110000000100100011010001010110011110001001101010111100 )
b111000000101100001001100010111101111001011011001011011000100 !
b111000000101100001001100010111101111001011011001011011000100 '
b100010101100111100010011010101111001101111011110000000100100011 +
b100100 *
1"
#60000
0"
#65000
b1110111011000110111100110011000001100110000101111100000100010011 (
b110011110001001101010111100110111101111000000010010001101000101 )
b101011011011001010001100110000111010111001011111111100100100101 !
b101011011011001010001100110000111010111001011111111100100100101 '
b1101111011110000000100100011010001010110011110001001101010111100 +
b100100 *
1"
#70000
0"
#75000
b1000010010001101101100110111010000111111111000110110100010100101 (
b1111000000010010001101000101011001111000100110101011110011011110 )
b101011001010000100111101111111001010101000110001110010001011000 !
b101011001010000100111101111111001010101000110001110010001011000 '
b110011110001001101010111100110111101111000000010010001101000101 +
b100100 *
1"
#80000
0"
#85000
b10111111000101111011001010100101101101101100101100110101101010 (
b1000100110101011110011011110111100000001001000110100010101100111 )
b111010010011111111001111100101010111000011111100010010110000011 !
b111010010011111111001111100101010111000011111100010010110000011 '
b1111000000010010001101000101011001111000100110101011110011011110 +
b100100 *
1"
#90000
0"
#95000
b1100111111000111111011110101000110000100110011000101110000000001 (
b1001000110100010101100111100010011010101111001101111011110000 )
b1011100101110001101110101001100001101110110101100001001011010001 !
b1011100101110001101110101001100001101110110101100001001011010001 '
b1000100110101011110011011110111100000001001000110100010101100111 +
b100100 *
1"
#100000
0"
#105000
b11101001101100100110010000000000101110000101011100011011110 (
b1010101111001101111011110000000100100011010001010110011110001001 )
b1110000111111100010001011100101000011111100010010011101011110001 !
b1110000111111100010001011100101000011111100010010011101011110001 '
b1001000110100010101100111100010011010101111001101111011110000 +
b100100 *
1"
